<svg data-name="Capa 1" xmlns="http://www.w3.org/2000/svg" viewBox="0 0 70 70">
  <path d="M2.56 47.92V26.08h14.46V24H.5v26h32v-2.08H2.56M52.98 24v2.08h14.46v21.84H37.5V50h32V24H52.98"/>
  <path d="M18 17v25.94h16V50h2v-7.06h16V17zm31.94 7.16v16.71H20.06V19.08h29.88z"/>
</svg>
