{
  "cviceni": {
    "version": {
      "global": "<%= version %>",
      "content": 1
    },
    "katalog": ["test"],
    "language": "cs",
    "slug": "je-slavonin-mesto-nebo-venkov",
    "nazev": "Je Slavonín město nebo venkov?",
    "autor": ["Petr Sedlák", "Michal Kurz", "Martin Váňa"],
    "casovaOsa": {
      "roky": [1950, 2020],
      "epocha": {
        "ceska": ["transformace"]
      }
    },
    "klicovaSlova": [
      "urbanizace",
      "město a venkov",
      "příčiny a důsledky",
      "díváme se kolem sebe"
    ],
    "anotace": {
      "ucitel": "Cvičení vychází ze srovnání leteckých snímků krajiny na jihozápadním okraji Olomouce. První byl pořízen okolo roku 1950, druhý po roce 2000. Patrné je zvláště multifunkční využití prostoru při dálničním přivaděči. Žáci zváží další prameny a odpovídají na otázku, jak proměnila urbanizace život obyvatel v původně venkovské krajině a pospolitosti.",
      "verejna": "Jsme nad jedním z okrajů Olomouce. Dnes zde vidíme z ptačí perspektivy sídliště, obchoďáky, dálnice. Stále patrný je ale i půdorys původně venkovské obce Slavonín. Zbylo zde něco z venkova i v životě lidí?"
    },
    "obtiznost": "nizka",
    "trvani": 25,
    "funkce": ["lupa", "cteni", "text", "svg", "pretahovani", "znacky"],
    "pdf": {
      "doporucenyPostup": "je-slavonin-mesto-nebo-venkov.pdf"
    },
    "uvodniObrazek": "je-slavonin-mesto-nebo-venkov/pic-05-550w.jpg",
    "id": 106
  },
  "slajd": [
    {
      "zadani": {
        "hlavni": "Na leteckých fotografiích vidíte stejné místo. Prohlédněte si obě fotografie.",
        "rozsirujici": ""
      },
      "napoveda": {
        "aktivity": ["lupa"],
        "text": "Při kliknutí levým tlačítkem do obrazu lupa přiblíží část obrazu ve výřezu."
      },
      "prameny": [
        "je-slavonin-mesto-nebo-venkov/pic-00-1280w.jpg",
        "je-slavonin-mesto-nebo-venkov/pic-01-1280w.jpg"
      ],
      "popisky": [
        "Území obce Slavonín, okolo roku 1950. Zdroj: Vojenský geografický a hydrometeorologický úřad Dobruška.",
        "Území městské čtvrti Olomouc-Slavonín, 2020. Zdroj: Český úřad zeměměřický a katastrální."
      ]
    },

    {
      "zadani": {
        "hlavni": "Označte na snímcích, co zůstalo stejné. Popište označené body.",
        "rozsirujici": ""
      },
      "napoveda": {
        "aktivity": ["svg"],
        "text": "Kliknutím na snímek levým tlačítkem myši označujete bod. Nakliknutím na bod pravým tlačítkem otevřete menu s nabídkou úkonů: změnit barvu bodu, (T) doplnit textový komentář, (X) smazat nakliknutý objekt."
      },
      "svg": {
        "soubory": [
          {
            "id": "svg-1",
            "soubor": "je-slavonin-mesto-nebo-venkov/pic-00-1024w.jpg",
            "funkce": ["text", "znacky"]
          },
          {
            "id": "svg-2",
            "soubor": "je-slavonin-mesto-nebo-venkov/pic-01-1024w.jpg",
            "barvy": ["blue"],
            "funkce": ["text", "znacky"]
          }
        ]
      },
      "popisky": [
        "Území obce Slavonín, okolo roku 1950. Zdroj: Vojenský geografický a hydrometeorologický úřad Dobruška.",
        "Území městské čtvrti Olomouc-Slavonín, 2020. Zdroj: Český úřad zeměměřický a katastrální."
      ]
    },

    {
      "zadani": {
        "hlavni": "Co v krajině přibylo? Přiřaďte popisky k vyznačeným objektům.",
        "rozsirujici": ""
      },
      "napoveda": {
        "aktivity": ["razeni"],
        "text": "Pomocí drag and drop přesouvejte položky z nabídky do obrázku."
      },
      "svg": {
        "pretahovani": {
          "id": "pretahovani-1",
          "items": [
            {
              "objekt": "televizní vysílač",
              "medium": "tag"
            },
            {
              "objekt": "dálniční přivaděč",
              "medium": "tag"
            },
            {
              "objekt": "obchodní centrum",
              "medium": "tag"
            },
            {
              "objekt": "aquapark",
              "medium": "tag"
            },
            {
              "objekt": "nové rodinné domy",
              "medium": "tag"
            },
            {
              "objekt": "panelové sídliště",
              "medium": "tag"
            }
          ]
        },
        "soubory": [
          {
            "id": "svg-3",
            "soubor": "je-slavonin-mesto-nebo-venkov/pic-01-1280w.jpg",
            "funkce": [],
            "drop": true,
            "komiks": [
              {
                "kategorie": "znacka",
                "barva": "blue",
                "pozice": [370, 870]
              },
              {
                "kategorie": "znacka",
                "barva": "blue",
                "pozice": [300, 670]
              },
              {
                "kategorie": "znacka",
                "barva": "blue",
                "pozice": [650, 460]
              },
              {
                "kategorie": "znacka",
                "barva": "blue",
                "pozice": [520, 480]
              },
              {
                "kategorie": "znacka",
                "barva": "blue",
                "pozice": [970, 280]
              },
              {
                "kategorie": "znacka",
                "barva": "blue",
                "pozice": [1100, 800]
              }
            ]
          }
        ]
      },
      "popisky": [
        "Území městské čtvrti Olomouc-Slavonín, 2020. Zdroj: Český úřad zeměměřický a katastrální."
      ]
    },

    {
      "zadani": {
        "hlavni": "Venkov a město",
        "rozsirujici": "Prozkoumejte další prameny. Na základě všech zjištěných informací zodpovězte otázky."
      },
      "napoveda": {
        "aktivity": ["lupa", "text"],
        "text": "Do boxu pro text zapisujete odpověď na otázku, nebo jiný komentář (dle zadání)."
      },
      "uzivatelskyText": {
        "layout": "velka-galerie",
        "galerie": [
          {
            "soubor": "je-slavonin-mesto-nebo-venkov/pic-04-1280w.jpg",
            "popisek": "Obec Slavonín (německy Schnobolin), pohlednice, asi 1900"
          },
          {
            "soubor": "je-slavonin-mesto-nebo-venkov/pic-05-550w.jpg",
            "popisek": "Výhled na Olomouc přes obec Slavonín, 2020. Foto: Miroslav Ulryc"
          },
          {
            "soubor": "je-slavonin-mesto-nebo-venkov/pic-03-1280w.jpg"
          },
          {
            "typ": "svg",
            "objekt": {
              "id": "svg-1-duplicate",
              "soubor": "je-slavonin-mesto-nebo-venkov/pic-00-1024w.jpg",
              "duplikovat": ["svg-1"]
            }
          },
          {
            "typ": "svg",
            "objekt": {
              "id": "svg-2-duplicate",
              "soubor": "je-slavonin-mesto-nebo-venkov/pic-01-1024w.jpg",
              "duplikovat": ["svg-2"]
            }
          },
          {
            "typ": "svg",
            "objekt": {
              "id": "svg-3-duplicate",
              "soubor": "je-slavonin-mesto-nebo-venkov/pic-01-1280w.jpg",
              "duplikovat": ["svg-3"],
              "komiks": [
                {
                  "kategorie": "znacka",
                  "barva": "blue",
                  "pozice": [370, 870]
                },
                {
                  "kategorie": "znacka",
                  "barva": "blue",
                  "pozice": [300, 670]
                },
                {
                  "kategorie": "znacka",
                  "barva": "blue",
                  "pozice": [650, 460]
                },
                {
                  "kategorie": "znacka",
                  "barva": "blue",
                  "pozice": [520, 480]
                },
                {
                  "kategorie": "znacka",
                  "barva": "blue",
                  "pozice": [970, 280]
                },
                {
                  "kategorie": "znacka",
                  "barva": "blue",
                  "pozice": [1100, 800]
                }
              ]
            }
          }
        ],
        "otazky": [
          {
            "id": "text-1",
            "zadani": "Co proměna krajiny kolem Slavonína vypovídá o životě jeho obyvatel po roce 1950?",
            "instrukce": "Myslím si, že…",
            "minDelka": 10,
            "maxDelka": 400
          },
          {
            "id": "text-2",
            "zadani": "Stal se Slavonín zcela součástí města, anebo může v něčem zůstávat venkovem?",
            "instrukce": "Myslím si, že…",
            "minDelka": 10,
            "maxDelka": 400
          }
        ]
      }
    }
  ]
}
