{
  "cviceni": {
    "version": {
      "global": "<%= version %>",
      "content": 2
    },
    "language": "en",
    "katalog": [
      "public",
      "test"
    ],
    "id": 48,
    "slug": "how-did-they-celebrate-a-public-holiday",
    "nazev": "How Did They Celebrate a Public Holiday?",
    "autor": [
      "Kamil Činátl"
    ],
    "klicovaSlova": [
      "normalisation",
      "everyday life",
      "celebrating anniversaries",
      "historical significance",
      "questioning"
    ],
    "anotace": {
      "ucitel": "This activity focuses on the analysis of a photograph of May festivities in 1980 in the town of Polička. Students describe individual symbols and features of the decoration and realize that a thorough analysis may make understanding the captured festivities easier. They get acquainted with the form and social function of celebrations in the years of normalization. In the following activity, they can compare their findings with their family or school history.",
      "verejna": "Do you like celebrations? Here’s an invitation to one! Have a look at the party decorations, look for who participated, and uncover the feeling of the whole thing. You’ve got more questions? That can only be a good thing!"
    },
    "trvani": 25,
    "funkce": [
      "lupa",
      "text",
      "svg",
      "kresleni"
    ],
    "pdf": {
      "doporucenyPostup": "how-did-they-celebrate-a-public-holiday.pdf"
    },
    "uvodniObrazek": "how-did-they-celebrate-a-public-holiday/pic-00-1280w.jpg"
  },
  "slajd": [
    {
      "zadani": {
        "hlavni": "Look at the photograph.",
        "rozsirujici": ""
      },
      "napoveda": {
        "aktivity": [
          "lupa"
        ],
        "text": "When you left click on the image, you can magnify sections of it."
      },
      "prameny": [
        "how-did-they-celebrate-a-public-holiday/pic-00-1280w.jpg"
      ]
    },
    {
      "class": [
        "half-slide-previous"
      ],
      "zadani": {
        "hlavni": "Mark important features of the photograph and describe them.",
        "rozsirujici": ""
      },
      "napoveda": {
        "aktivity": [
          "svg"
        ],
        "text": "Drag the mouse with the left mouse button to draw on the image. Right-click on the shape you’ve drawn to open the action menu: change the shape color, (T) add a text comment, (X) delete the object you clicked on."
      },
      "svg": {
        "soubory": [
          {
            "id": "svg-1",
            "soubor": "how-did-they-celebrate-a-public-holiday/pic-00-1280w.jpg",
            "funkce": [
              "text",
              "kresleni"
            ]
          }
        ]
      },
      "popisky": [
        "The Polička town hall decorated for the occasion of a public holiday in 1980. Source: The Archive of the Municipal Library in Polička"
      ]
    },
    {
      "class": [
        "half-slide-active"
      ],
      "zadani": {
        "hlavni": "Interpretation of the photograph.",
        "rozsirujici": ""
      },
      "napoveda": {
        "aktivity": [
          "text"
        ],
        "text": "Write answers to the questions or other comments into the text box (as assigned)."
      },
      "uzivatelskyText": {
        "otazky": [
          {
            "id": "text-1",
            "zadani": "Who took part in the celebration of the public holiday?",
            "instrukce": "I think that…",
            "minDelka": 10,
            "maxDelka": 400
          }
        ]
      }
    },
    {
      "zadani": {
        "hlavni": "Questions.",
        "rozsirujici": ""
      },
      "napoveda": {
        "aktivity": [
          "text"
        ],
        "text": "Write answers to the questions or other comments into the text box (as assigned)."
      },
      "uzivatelskyText": {
        "otazky": [
          {
            "id": "text-2",
            "zadani": "What, in your opinion, was the purpose of the celebrations and why did people take part in them?",
            "instrukce": "I think that…",
            "minDelka": 10,
            "maxDelka": 400
          },
          {
            "id": "text-3",
            "zadani": "What else would you like to learn about the photograph or the occasion?",
            "instrukce": "I think that…",
            "minDelka": 10,
            "maxDelka": 400
          }
        ]
      }
    }
  ]
}
